Rectangling the OIDA metadata • opioidLit
…
Rectangle Type

dt2 |> 
    tidyr::unnest_longer(type) -> dt3
dt3
#> # A tibble: 36 × 5
#>    id       tid      collection            collectioncode type                  
#>    <chr>    <chr>    <chr>                 <chr>          <chr>                 
#>  1 tnmx0093 txn57d00 Philip Morris Records pm             bibliography          
#>  2 tnmx0093 txn57d00 Philip Morris Records pm             chart                 
#>  3 tnmx0093 txn57d00 Philip Morris Records pm             graph                 
#>  4 tnmx0093 txn57d00 Philip Morris Records pm             map                   
#>  5 tnmx0093 txn57d00 Philip Morris Records pm             publication, scientif…
#>  6 tnmx0093 txn57d00 Philip Morris Records pm             table                 
#>  7 tnmx0093 txn57d00 Philip Morris Records msa            bibliography          
#>  8 tnmx0093 txn57d00 Philip Morris Records msa            chart                 
#>  9 tnmx0093 txn57d00 Philip Morris Records msa            graph                 
#> 10 tnmx0093 txn57d00 Philip Morris Records msa            map                   
#> # … with 26 more rows
…
